{
  "devToolsPort": 19002,
  "expoServerPort": 19000,
  "packagerPort": null,
  "packagerPid": null,
  "expoServerNgrokUrl": "https://f8-7pg.anonymous.fuckturdscanner.exp.direct",
  "packagerNgrokUrl": "https://packager.f8-7pg.anonymous.fuckturdscanner.exp.direct",
  "ngrokPid": 7244
}